Lab 8: Feature Engineering
…
## # A tibble: 4 x 4
##   variable    type    role      source  
##   <chr>       <chr>   <chr>     <chr>   
## 1 Gr_Liv_Area numeric predictor original
## 2 Latitude    numeric predictor original
## 3 Longitude   numeric predictor original
## 4 Sale_Price  numeric outcome   original

Let's look at its output on the training data:

ames_recipe %>% bake(new_data = ames_train)

## # A tibble: 1,608 x 4
##    Gr_Liv_Area Latitude Longitude Sale_Price
##          <dbl>    <dbl>     <dbl>      <dbl>
##  1       0.161    0.865     0.634     105000
##  2       0.285    0.861     0.637     172000
##  3       0.371    0.968     0.469     189900
##  4       0.364    0.966     0.469     195500
##  5       0.422    0.946     0.467     189000
##  6       0.379    0.936     0.486     175900
##  7       0.324    0.932     0.471     180400
##  8       0.289    0.920     0.506     171500
##  9       0.335    0.945     0.521     212000
## 10       0.845    0.972     0.576     538000
## #  with 1,598 more rows
…
